// ---------------------------------------------------
// World Geometry : 20 x 20 x 30 AIR
// Then air and carbon base
{
  name: "GEO",
  index: "world",
  material: "G4_AIR",
  size: ["10.*m", "10.0*m", "7.*m"],
  type: "box",
}

// --------------------------------------------------
// AWE Detector
{
  name: "GEO",
  index: "det_below",
  type: "hybrid_muontom",
  mother: "world",
  position: ["0.0","0.0","-1.0*m"],
  input_file: "myhybriddetector.geo"
}

{
  name: "GEO",
  index: "det_above",
  type: "hybrid_muontom",
  mother: "world",
  position: ["0.0","0.0","1.0*m"],
  input_file: "myhybriddetector.geo"
}

// Trigger requires both systems to have information
{
  name: "TRIGGER",
  index: "dettrigger",
  type: "simple",
  processors: ["det_above","det_below"]
}


// ---------------------------------------------------
// Flux Generator Source Location : Default is Shukla
{
  name: "FLUX",
  index: "source_box",
  size: ["10.0*m", "10.*m", "0.05*m"],
  position: ["0.0","0.0", "3.475*m"],
}

{
  name: "FLUXNULL",
  index: "target_box_0",
  size: ["1.80*m","0.60*m","0.07*m"],
  position: ["1.0","0.0","0.0*m"],
  rotation: [90.0,0.0,90.0],
  region: "precision"
}

